{
  "extends": ["tslint:recommended", "tslint-react"],
  "rules": {
    "indent": [
      true,
      "tabs"
    ],
    "object-literal-sort-keys": false,
    "trailing-comma": false,
    "no-trailing-whitespace": false,
    "no-string-literal": false,
    "triple-equals": false,
    "whitespace": [
      true,
      "check-decl",
      "check-operator",
      "check-module",
      "check-separator",
      "check-type"
    ],
    "max-line-length": false,
    "eofline": false,
    "curly": false,
    "one-line": false,
    "switch-default": false,
    "jsx-no-lambda": true,
    "radix": false,
    "interface-name": false,
    "semicolon": [true, "always", "ignore-bound-class-methods"]
  },
  "rulesDirectory": [
  ]
}
